Causality
…
```r
# Load the data
fun_df <- read_csv("fun_data.csv")
# Separate into two datasets
y1_df <- fun_df %>% select(-y2)
y2_df <- fun_df %>% select(-y1)
# Peak at the data
y1_df
```

```
#> # A tibble: 100 x 10
#>          y1     x1    x2     x3    x4     x5    x6       x7    x8
#>       <dbl>  <dbl> <dbl>  <dbl> <dbl>  <dbl> <dbl>    <dbl> <dbl>
#>  1   3.08   -0.777 0.405  1.23  0.762 -0.232  1.17  0.111       1
#>  2   6.04    0.473 1.59   0.584 1.53   0.349  1.52 -0.00994     2
#>  3   9.57    2.30  3.52  -0.976 3.32   0.581  1.50  0.974       3
#>  4  11.4     2.46  5.33  -1.77  4.64  -0.576  1.92  2.53        4
#>  5  -0.0319  0.313 2.09  -2.59  1.37  -0.717  3.76  2.14        5
#>  6   5.21    1.37  1.23   2.34  2.21  -1.40   3.55  1.17        6
#>  7   7.97    1.73  3.46   0.584 2.24  -1.31   3.77  1.92        7
#>  8  -5.17    2.60  4.09  -4.15  4.13  -2.57   4.60  0.886       8
#>  9   1.57    0.877 3.96   2.08  1.42  -2.89   3.68  1.32        9
#> 10   3.97   -0.197 0.875 -0.760 0.697 -1.92   1.90  1.85       10
#> # … with 90 more rows, and 1 more variable: x9 <dbl>
```
…
