Problem Set 1 Solutions
…
*Hints:* The `read_csv()` function reads CSVs into .mono[R], _e.g._, `read_csv("file.csv")`. The `dim()` function will tell you the dimensions of a dataset, _e.g._, `dim(some_data)`.

.pink[**Answer** The dataset has 4,870 observations (rows) on 12 variables (columns).

```r
# Read in the data
ps1_df <- read_csv("ps01_data.csv")
# Dimensions of the dataset:
# 1. Printed to screen (since it's a tibble)
ps1_df
```

```
#> # A tibble: 4,870 x 12
#>   i_callback n_jobs n_expr i_military i_computer first_name sex   i_female
#>        <dbl>  <dbl>  <dbl>      <dbl>      <dbl> <chr>      <chr>    <dbl>
#> 1          0      2      6          0          1 Allison    f            1
#> 2          0      3      6          1          1 Kristen    f            1
#> 3          0      1      6          0          1 Lakisha    f            1
#> # … with 4,867 more rows, and 4 more variables: i_male <dbl>, race <chr>,
#> #   i_black <dbl>, i_white <dbl>
```
…
